sim/tests/lwf/streamwave.vcd
$date
	Sat May 16 14:52:10 2020
$end
$version
	Icarus Verilog
$end
$timescale
	1ps
$end
$scope module userlogic_test $end
$var wire 32 ! data_out [31:0] $end
$var wire 15 " input_buffer_addr [14:0] $end
$var wire 15 # output_buffer_addr [14:0] $end
$var wire 32 $ ul_instr [31:0] $end
$var wire 32 % ul_instr_addr [31:0] $end
$var wire 32 & ul_read_addr [31:0] $end
$var wire 32 ' ul_read_data [31:0] $end
$var wire 32 ( ul_status [31:0] $end
$var wire 32 ) ul_test [31:0] $end
$var wire 32 * ul_write_addr [31:0] $end
$var wire 32 + ul_write_data [31:0] $end
$var wire 16 , ul_write_data_hi [15:0] $end
$var wire 16 - ul_write_data_lo [15:0] $end
$var wire 2 . ul_write_en_hi [1:0] $end
$var wire 2 / ul_write_en_lo [1:0] $end
$var reg 1 0 clk $end
$var reg 32 1 cycle_count [32:1] $end
$var integer 32 2 dump_vars [31:0] $end
$var reg 8192 3 dump_vars_filename [8192:1] $end
$var integer 32 4 i [31:0] $end
$var reg 10 5 image_n_columns [9:0] $end
$var reg 10 6 image_n_rows [9:0] $end
$var reg 8192 7 input_buffer_filename [8192:1] $end
$var reg 8192 8 instr_mem_filename [8192:1] $end
$var reg 32 9 num_cycles [32:1] $end
$var reg 33 : out_end_addr [32:0] $end
$var reg 33 ; out_start_addr [32:0] $end
$var integer 32 < outfile [31:0] $end
$var reg 8192 = output_buffer_filename [8192:1] $end
$var reg 15 > read_addr [14:0] $end
$var integer 32 ? read_input_buffer [31:0] $end
$var integer 32 @ read_instr_mem [31:0] $end
$var integer 32 A result [31:0] $end
$var reg 1 B rst_n $end
$var reg 8192 C test_result_filename [8192:1] $end
$var reg 32 D ul_command [31:0] $end
$var integer 32 E write_output_buffer [31:0] $end
$var integer 32 F write_test_result [31:0] $end
$scope module instr_mem $end
$var wire 14 G addr [13:0] $end
$var wire 1 H clk $end
$var wire 32 I din [31:0] $end
$var wire 1 J we $end
$var reg 32 K dout [31:0] $end
$upscope $end
$scope module input_buffer $end
$var wire 15 L addr [14:0] $end
$var wire 1 H clk $end
$var wire 32 M din [31:0] $end
$var wire 1 N we $end
$var reg 32 O dout [31:0] $end
$upscope $end
$scope module output_buffer $end
$var wire 15 P addr [14:0] $end
$var wire 1 H clk $end
$var wire 32 Q din [31:0] $end
$var wire 4 R we [3:0] $end
$var reg 32 S dout [31:0] $end
$scope begin column[0] $end
$upscope $end
$scope begin column[1] $end
$upscope $end
$scope begin column[2] $end
$upscope $end
$scope begin column[3] $end
$upscope $end
$upscope $end
$scope module ul $end
$var wire 1 T addr_cmd $end
$var wire 1 U addr_iobuf $end
$var wire 1 V addr_local $end
$var wire 1 W addr_status $end
$var wire 1 X addr_test $end
$var wire 1 H clk $end
$var wire 32 Y command [31:0] $end
$var wire 32 Z instr [31:0] $end
$var wire 32 [ instr_addr [31:0] $end
$var wire 32 \ mips_addr [31:0] $end
$var wire 32 ] mips_local_read_data [31:0] $end
$var wire 32 ^ mips_pc [31:0] $end
$var wire 32 _ mips_read_data [31:0] $end
$var wire 1 ` mips_read_en $end
$var wire 4 a mips_write_en [3:0] $end
$var wire 32 b read_addr_hi [31:0] $end
$var wire 32 c read_addr_lo [31:0] $end
$var wire 32 d read_data [31:0] $end
$var wire 16 e read_data_hi [15:0] $end
$var wire 16 f read_data_lo [15:0] $end
$var wire 1 g rst_n $end
$var wire 32 h status [31:0] $end
$var wire 32 i test [31:0] $end
$var wire 32 j write_addr_hi [31:0] $end
$var wire 32 k write_addr_lo [31:0] $end
$var wire 32 l write_data [31:0] $end
$var wire 16 m write_data_hi [15:0] $end
$var wire 16 n write_data_lo [15:0] $end
$var wire 2 o write_en_hi [1:0] $end
$var wire 2 p write_en_lo [1:0] $end
$var reg 32 q cmd_d [31:0] $end
$var reg 1 r read_cmd_d $end
$var reg 1 s read_iobuf_d $end
$var reg 32 t status_reg [31:0] $end
$var reg 32 u test_reg [31:0] $end
$scope module cpu $end
$var wire 32 v alu_op_x_ex [31:0] $end
$var wire 32 w alu_op_x_id [31:0] $end
$var wire 32 x alu_op_y_ex [31:0] $end
$var wire 32 y alu_op_y_id [31:0] $end
$var wire 1 z alu_op_y_zero_ex $end
$var wire 4 { alu_opcode_ex [3:0] $end
$var wire 4 | alu_opcode_id [3:0] $end
$var wire 1 } alu_overflow $end
$var wire 32 ~ alu_result_ex [31:0] $end
$var wire 32 !" alu_result_mem [31:0] $end
$var wire 32 "" alu_sc_result_ex [31:0] $end
$var wire 1 #" atomic_en $end
$var wire 1 H clk $end
$var wire 1 $" en $end
$var wire 1 %" en_if $end
$var wire 32 &" instr [31:0] $end
$var wire 32 '" instr_id [31:0] $end
$var wire 30 (" instr_number_id [29:0] $end
$var wire 32 )" instr_sav [31:0] $end
$var wire 32 *" jr_pc_id [31:0] $end
$var wire 1 +" jump_branch_id $end
$var wire 32 ," jump_reg_dest_id [31:0] $end
$var wire 1 -" jump_reg_id $end
$var wire 1 ." jump_target_id $end
$var wire 32 /" mem_addr [31:0] $end
$var wire 1 0" mem_atomic_ex $end
$var wire 1 1" mem_atomic_id $end
$var wire 1 2" mem_byte_ex $end
$var wire 1 3" mem_byte_id $end
$var wire 1 4" mem_byte_mem $end
$var wire 32 5" mem_out [31:0] $end
$var wire 32 6" mem_read_data [31:0] $end
$var wire 32 7" mem_read_data_byte_extend [31:0] $end
$var wire 8 8" mem_read_data_byte_select [7:0] $end
$var wire 1 ` mem_read_en $end
$var wire 1 9" mem_read_ex $end
$var wire 1 :" mem_read_id $end
$var wire 1 ;" mem_read_mem $end
$var wire 1 <" mem_sc_ex $end
$var wire 1 =" mem_sc_id $end
$var wire 1 >" mem_sc_mask_id $end
$var wire 1 ?" mem_signextend_ex $end
$var wire 1 @" mem_signextend_id $end
$var wire 1 A" mem_signextend_mem $end
$var wire 1 B" mem_we_ex $end
$var wire 1 C" mem_we_id $end
$var wire 32 D" mem_write_data [31:0] $end
$var wire 32 E" mem_write_data_ex [31:0] $end
$var wire 32 F" mem_write_data_id [31:0] $end
$var wire 4 G" mem_write_en [3:0] $end
$var wire 1 H" movn_ex $end
$var wire 1 I" movn_id $end
$var wire 1 J" movz_ex $end
$var wire 1 K" movz_id $end
$var wire 32 L" pc [31:0] $end
$var wire 32 M" pc_id [31:0] $end
$var wire 32 N" pc_if [31:0] $end
$var wire 1 O" reg_we_cond_ex $end
$var wire 1 P" reg_we_ex $end
$var wire 1 Q" reg_we_id $end
$var wire 1 R" reg_we_mem $end
$var wire 1 S" reg_we_wb $end
$var wire 5 T" reg_write_addr_ex [4:0] $end
$var wire 5 U" reg_write_addr_id [4:0] $end
$var wire 5 V" reg_write_addr_mem [4:0] $end
$var wire 5 W" reg_write_addr_wb [4:0] $end
$var wire 32 X" reg_write_data_mem [31:0] $end
$var wire 32 Y" reg_write_data_wb [31:0] $end
$var wire 5 Z" rs_addr_id [4:0] $end
$var wire 32 [" rs_data_id [31:0] $end
$var wire 1 \" rst $end
$var wire 1 ]" rst_id $end
$var wire 5 ^" rt_addr_id [4:0] $end
$var wire 32 _" rt_data_id [31:0] $end
$var wire 32 `" sc_result [31:0] $end
$var wire 1 a" stall $end
$var wire 1 b" stall_r $end
$scope module if_stage $end
$var wire 1 H clk $end
$var wire 1 %" en $end
$var wire 26 c" instr_id [25:0] $end
$var wire 32 d" j_addr [31:0] $end
$var wire 1 -" jump_reg $end
$var wire 32 e" jump_reg_dest [31:0] $end
$var wire 1 ." jump_target $end
$var wire 32 f" pc [31:0] $end
$var wire 32 g" pc_id [31:0] $end
$var wire 32 h" pc_id_p4 [31:0] $end
$var wire 32 i" pc_next [31:0] $end
$var wire 1 \" rst $end
$scope module pc_reg $end
$var wire 1 H clk $end
$var wire 32 j" d [31:0] $end
$var wire 1 %" en $end
$var wire 1 \" r $end
$var reg 32 k" q [31:0] $end
$upscope $end
$upscope $end
$scope module pc_if2id $end
$var wire 1 H clk $end
$var wire 32 l" d [31:0] $end
$var wire 1 %" en $end
$var wire 1 \" r $end
$var reg 32 m" q [31:0] $end
$upscope $end
$scope module instr_sav_dff $end
$var wire 1 H clk $end
$var wire 32 n" d [31:0] $end
$var wire 1 $" en $end
$var wire 1 \" r $end
$var reg 32 o" q [31:0] $end
$upscope $end
$scope module stall_f_dff $end
$var wire 1 H clk $end
$var wire 1 a" d $end
$var wire 1 $" en $end
$var wire 1 \" r $end
$var reg 1 p" q $end
$upscope $end
$scope module d_stage $end
$var wire 32 q" alu_op_x [31:0] $end
$var wire 32 r" alu_op_y [31:0] $end
$var wire 32 s" alu_result_ex [31:0] $end
$var wire 1 0" atomic_ex $end
$var wire 1 1" atomic_id $end
$var wire 1 t" forward_rs_mem $end
$var wire 6 u" funct [5:0] $end
$var wire 32 v" imm [31:0] $end
$var wire 32 w" imm_sign_extend [31:0] $end
$var wire 32 x" imm_upper [31:0] $end
$var wire 32 y" imm_zero_extend [31:0] $end
$var wire 16 z" immediate [15:0] $end
$var wire 32 {" instr [31:0] $end
$var wire 1 |" isALUImm $end
$var wire 1 }" isBEQ $end
$var wire 1 ~" isBGEZAL $end
$var wire 1 !# isBGEZNL $end
$var wire 1 "# isBGTZ $end
$var wire 1 ## isBLEZ $end
$var wire 1 $# isBLTZAL $end
$var wire 1 %# isBLTZNL $end
$var wire 1 &# isBNE $end
$var wire 1 '# isBranchLink $end
$var wire 1 (# isEqual $end
$var wire 1 )# isJ $end
$var wire 1 *# isJR $end
$var wire 1 +# isLUI $end
$var wire 1 ,# isSLL $end
$var wire 1 -# isSLLV $end
$var wire 1 .# isSRA $end
$var wire 1 /# isSRAV $end
$var wire 1 0# isSRL $end
$var wire 1 1# isSRLV $end
$var wire 1 2# isShift $end
$var wire 1 3# isShiftImm $end
$var wire 32 4# jr_pc [31:0] $end
$var wire 1 +" jump_branch $end
$var wire 1 -" jump_reg $end
$var wire 32 5# jump_reg_dest [31:0] $end
$var wire 1 ." jump_target $end
$var wire 1 3" mem_byte $end
$var wire 1 :" mem_read $end
$var wire 1 9" mem_read_ex $end
$var wire 1 =" mem_sc_id $end
$var wire 1 >" mem_sc_mask_id $end
$var wire 1 @" mem_signextend $end
$var wire 1 C" mem_we $end
$var wire 32 6# mem_write_data [31:0] $end
$var wire 1 I" movn $end
$var wire 1 K" movz $end
$var wire 6 7# op [5:0] $end
$var wire 32 8# pc [31:0] $end
$var wire 5 9# rd_addr [4:0] $end
$var wire 1 :# read_from_rs $end
$var wire 1 ;# read_from_rt $end
$var wire 1 Q" reg_we $end
$var wire 1 P" reg_we_ex $end
$var wire 1 R" reg_we_mem $end
$var wire 5 <# reg_write_addr [4:0] $end
$var wire 5 =# reg_write_addr_ex [4:0] $end
$var wire 5 ># reg_write_addr_mem [4:0] $end
$var wire 32 ?# reg_write_data_mem [31:0] $end
$var wire 5 @# rs_addr [4:0] $end
$var wire 32 A# rs_data [31:0] $end
$var wire 32 B# rs_data_in [31:0] $end
$var wire 1 C# rs_mem_dependency $end
$var wire 5 D# rt_addr [4:0] $end
$var wire 32 E# rt_data [31:0] $end
$var wire 32 F# rt_data_in [31:0] $end
$var wire 5 G# shamt [4:0] $end
$var wire 32 H# shift_amount [31:0] $end
$var wire 1 a" stall $end
$var wire 1 I# use_imm $end
$var reg 4 J# alu_opcode [3:0] $end
$upscope $end
$scope module atomic $end
$var wire 1 \" ar $end
$var wire 1 H clk $end
$var wire 1 1" d $end
$var wire 1 #" en $end
$var wire 1 ]" r $end
$var reg 1 K# q $end
$upscope $end
$scope module sc $end
$var wire 1 \" ar $end
$var wire 1 H clk $end
$var wire 1 =" d $end
$var wire 1 $" en $end
$var wire 1 ]" r $end
$var reg 1 L# q $end
$upscope $end
$scope module alu_op_x_id2ex $end
$var wire 1 \" ar $end
$var wire 1 H clk $end
$var wire 32 M# d [31:0] $end
$var wire 1 $" en $end
$var wire 1 ]" r $end
$var reg 32 N# q [31:0] $end
$upscope $end
$scope module alu_op_y_id2ex $end
$var wire 1 \" ar $end
$var wire 1 H clk $end
$var wire 32 O# d [31:0] $end
$var wire 1 $" en $end
$var wire 1 ]" r $end
$var reg 32 P# q [31:0] $end
$upscope $end
$scope module alu_opcode_id2ex $end
$var wire 1 \" ar $end
$var wire 1 H clk $end
$var wire 4 Q# d [3:0] $end
$var wire 1 $" en $end
$var wire 1 ]" r $end
$var reg 4 R# q [3:0] $end
$upscope $end
$scope module movn $end
$var wire 1 \" ar $end
$var wire 1 H clk $end
$var wire 1 I" d $end
$var wire 1 $" en $end
$var wire 1 ]" r $end
$var reg 1 S# q $end
$upscope $end
$scope module movz $end
$var wire 1 \" ar $end
$var wire 1 H clk $end
$var wire 1 K" d $end
$var wire 1 $" en $end
$var wire 1 ]" r $end
$var reg 1 T# q $end
$upscope $end
$scope module x_stage $end
$var wire 1 U# add_check $end
$var wire 1 V# add_neg_over $end
$var wire 1 W# add_pos_over $end
$var wire 1 X# alu_neg $end
$var wire 32 Y# alu_op_x [31:0] $end
$var wire 32 Z# alu_op_x_signed [31:0] $end
$var wire 32 [# alu_op_y [31:0] $end
$var wire 32 \# alu_op_y_signed [31:0] $end
$var wire 1 z alu_op_y_zero $end
$var wire 4 ]# alu_opcode [3:0] $end
$var wire 1 } alu_overflow $end
$var wire 1 ^# sub_check $end
$var wire 1 _# sub_neg_over $end
$var wire 1 `# sub_pos_over $end
$var wire 1 a# x_neg $end
$var wire 1 b# y_neg $end
$var reg 32 c# alu_result [31:0] $end
$upscope $end
$scope module mem_write_data_id2ex $end
$var wire 1 \" ar $end
$var wire 1 H clk $end
$var wire 32 d# d [31:0] $end
$var wire 1 $" en $end
$var wire 1 ]" r $end
$var reg 32 e# q [31:0] $end
$upscope $end
$scope module mem_we_id2ex $end
$var wire 1 \" ar $end
$var wire 1 H clk $end
$var wire 1 f# d $end
$var wire 1 $" en $end
$var wire 1 ]" r $end
$var reg 1 g# q $end
$upscope $end
$scope module mem_read_id2ex $end
$var wire 1 \" ar $end
$var wire 1 H clk $end
$var wire 1 h# d $end
$var wire 1 $" en $end
$var wire 1 ]" r $end
$var reg 1 i# q $end
$upscope $end
$scope module mem_byte_id2ex $end
$var wire 1 \" ar $end
$var wire 1 H clk $end
$var wire 1 3" d $end
$var wire 1 $" en $end
$var wire 1 ]" r $end
$var reg 1 j# q $end
$upscope $end
$scope module mem_signextend_id2ex $end
$var wire 1 \" ar $end
$var wire 1 H clk $end
$var wire 1 @" d $end
$var wire 1 $" en $end
$var wire 1 ]" r $end
$var reg 1 k# q $end
$upscope $end
$scope module alu_result_ex2mem $end
$var wire 1 H clk $end
$var wire 32 l# d [31:0] $end
$var wire 1 $" en $end
$var wire 1 \" r $end
$var reg 32 m# q [31:0] $end
$upscope $end
$scope module mem_read_ex2mem $end
$var wire 1 H clk $end
$var wire 1 n# d $end
$var wire 1 $" en $end
$var wire 1 \" r $end
$var reg 1 o# q $end
$upscope $end
$scope module mem_byte_ex2mem $end
$var wire 1 H clk $end
$var wire 1 2" d $end
$var wire 1 $" en $end
$var wire 1 \" r $end
$var reg 1 p# q $end
$upscope $end
$scope module mem_signextend_ex2mem $end
$var wire 1 H clk $end
$var wire 1 ?" d $end
$var wire 1 $" en $end
$var wire 1 \" r $end
$var reg 1 q# q $end
$upscope $end
$scope module reg_write_addr_id2ex $end
$var wire 1 \" ar $end
$var wire 1 H clk $end
$var wire 5 r# d [4:0] $end
$var wire 1 $" en $end
$var wire 1 ]" r $end
$var reg 5 s# q [4:0] $end
$upscope $end
$scope module reg_we_id2ex $end
$var wire 1 \" ar $end
$var wire 1 H clk $end
$var wire 1 Q" d $end
$var wire 1 $" en $end
$var wire 1 ]" r $end
$var reg 1 t# q $end
$upscope $end
$scope module reg_write_addr_ex2mem $end
$var wire 1 H clk $end
$var wire 5 u# d [4:0] $end
$var wire 1 $" en $end
$var wire 1 \" r $end
$var reg 5 v# q [4:0] $end
$upscope $end
$scope module reg_we_ex2mem $end
$var wire 1 H clk $end
$var wire 1 P" d $end
$var wire 1 $" en $end
$var wire 1 \" r $end
$var reg 1 w# q $end
$upscope $end
$scope module reg_write_data_mem2wb $end
$var wire 1 H clk $end
$var wire 32 x# d [31:0] $end
$var wire 1 $" en $end
$var wire 1 \" r $end
$var reg 32 y# q [31:0] $end
$upscope $end
$scope module reg_write_addr_mem2wb $end
$var wire 1 H clk $end
$var wire 5 z# d [4:0] $end
$var wire 1 $" en $end
$var wire 1 \" r $end
$var reg 5 {# q [4:0] $end
$upscope $end
$scope module reg_we_mem2wb $end
$var wire 1 H clk $end
$var wire 1 R" d $end
$var wire 1 $" en $end
$var wire 1 \" r $end
$var reg 1 |# q $end
$upscope $end
$scope module w_stage $end
$var wire 1 H clk $end
$var wire 1 $" en $end
$var wire 1 S" reg_we $end
$var wire 5 }# reg_write_addr [4:0] $end
$var wire 32 ~# reg_write_data [31:0] $end
$var wire 5 !$ rs_addr [4:0] $end
$var wire 32 "$ rs_data [31:0] $end
$var wire 5 #$ rt_addr [4:0] $end
$var wire 32 $$ rt_data [31:0] $end
$upscope $end
$upscope $end
$scope module mips_local_store $end
$var wire 12 %$ addr [11:0] $end
$var wire 1 H clk $end
$var wire 32 &$ din [31:0] $end
$var wire 4 '$ we [3:0] $end
$var reg 32 ($ dout [31:0] $end
$scope begin column[0] $end
$upscope $end
$scope begin column[1] $end
$upscope $end
$scope begin column[2] $end
$upscope $end
$scope begin column[3] $end
$upscope $end
$upscope $end
$upscope $end
$upscope $end
$enddefinitions $end
#0
$dumpvars
bx ($
b0 '$
b0 &$
b0 %$
bx $$
bx #$
bx "$
bx !$
b0 ~#
b0 }#
0|#
b0 {#
b0 z#
b0 y#
b0 x#
0w#
b0 v#
b0 u#
0t#
b0 s#
bx r#
0q#
0p#
0o#
0n#
b0 m#
b0 l#
0k#
0j#
0i#
0h#
0g#
xf#
b0 e#
bx d#
b0 c#
0b#
0a#
0`#
0_#
0^#
b0 ]#
b0 \#
b0 [#
b0 Z#
b0 Y#
0X#
0W#
0V#
0U#
0T#
0S#
b0 R#
b1101 Q#
b0 P#
bx O#
b0 N#
bx M#
0L#
0K#
b1101 J#
xI#
b0xxxxx H#
bx G#
bx F#
bx E#
bx D#
0C#
bx B#
bx A#
bx @#
b0 ?#
b0 >#
b0 =#
bx <#
x;#
x:#
bx 9#
b0 8#
bx 7#
bx 6#
bx 5#
bx 4#
x3#
x2#
x1#
x0#
x/#
x.#
x-#
x,#
x+#
x*#
x)#
x(#
x'#
x&#
x%#
x$#
x##
x"#
x!#
x~"
x}"
x|"
bx {"
bx z"
b0xxxxxxxxxxxxxxxx y"
bx0000000000000000 x"
bx w"
bx v"
bx u"
0t"
b0 s"
bx r"
bx q"
0p"
b0 o"
bx n"
b0 m"
b0 l"
b0 k"
bx j"
bx i"
b100 h"
b0 g"
b0 f"
bx e"
bx d"
bx c"
0b"
0a"
b0 `"
bx _"
bx ^"
0]"
0\"
bx ["
bx Z"
b0 Y"
b0 X"
b0 W"
b0 V"
bx U"
b0 T"
0S"
0R"
xQ"
0P"
0O"
b0 N"
b0 M"
b0 L"
xK"
0J"
xI"
0H"
b0 G"
bx F"
b0 E"
b0 D"
xC"
0B"
0A"
x@"
0?"
0>"
x="
0<"
0;"
0:"
09"
bx 8"
b0xxxxxxxx 7"
bx 6"
bx 5"
04"
x3"
02"
01"
00"
b0 /"
x."
x-"
bx ,"
x+"
bx *"
b0 )"
b0 ("
bx '"
bx &"
1%"
1$"
0#"
b0 ""
b0 !"
b0 ~
0}
b1101 |
b0 {
1z
bx y
b0 x
bx w
b0 v
bx u
bx t
xs
xr
bx q
b0 p
b0 o
b0 n
b0 m
b0 l
b0 k
b0 j
bx i
bx h
0g
bx f
bx e
bx d
b0 c
b0 b
b0 a
0`
bx _
b0 ^
bx ]
b0 \
b0 [
bx Z
b0xxxxxxxxxxxxxxxxxxxx10 Y
0X
0W
1V
0U
0T
bx S
b0 R
b0 Q
b0 P
bx O
0N
b0 M
b0 L
bx K
0J
b0 I
0H
b0 G
b1 F
b0 E
b0xxxxxxxxxxxxxxxxxxxx10 D
b111010001100101011100110111010001110011001011110110110001110111001011110111010001100101011100110111010000101110011100100110010101110011011101010110110001110100 C
0B
b1 A
b1 @
b0 ?
b0 >
bx =
bx <
b0 ;
b100000000000000000 :
b1111101000 9
b1110100011001010111001101110100011100110010111101101100011101110010111101100010011101010110100101101100011001000010111101100001011100000111000000101110011010000110010101111000 8
bx 7
bx 6
bx 5
bx 4
b111010001100101011100110111010001110011001011110110110001110111001011110111001101110100011100100110010101100001011011010111011101100001011101100110010100101110011101100110001101100100 3
b1 2
b0 1
00
b0 /
b0 .
b0 -
b0 ,
b0 +
b0 *
bx )
bx (
bx '
b0 &
b0 %
bx $
b0 #
b0 "
bx !
$end
#5000
02#
b0 H#
b0 w
b0 q"
b0 M#
03#
b100 i"
b100 j"
b0 A#
b0 *"
b0 4#
0'#
b10000100000000000001000 d"
0+"
b10000000000000100000000000000000 y
b10000000000000100000000000000000 r"
b10000000000000100000000000000000 O#
1Q"
0f#
b0 ,"
b0 e"
b0 5#
b0 ["
b0 B#
b0 "$
0!#
0~"
0"#
0##
0%#
0$#
b10000 U"
b10000 <#
b10000 r#
0-"
0*#
0,#
00#
0-#
01#
0.#
0/#
b1100 J#
b1100 |
b1100 Q#
b10000000000000100000000000000000 v"
0}"
0&#
0)#
0."
1I#
0:#
0;#
1+#
0|"
0C"
03"
1@"
0="
b1111 7#
b0 Z"
b0 @#
b0 !$
b10000 ^"
b10000 D#
b10000 #$
b10000 9#
b0 G#
0I"
0K"
b10 u"
b11111111111111111000000000000010 w"
b1000000000000010 y"
b10000000000000100000000000000000 x"
b1000000000000010 z"
b100001000000000000010 c"
b111100000100001000000000000010 '"
b111100000100001000000000000010 {"
b111100000100001000000000000010 K
b111100000100001000000000000010 $
b111100000100001000000000000010 Z
b111100000100001000000000000010 &"
b111100000100001000000000000010 n"
bx S
bx ($
b0 u
b0 )
b0 i
b0 t
b0 (
b0 h
0s
0r
b0 q
10
1H
#10000
00
0H
#15000
bx ($
bx S
10
1H
#20000
1\"
00
0H
b0xxxxxxxxxxxxxxxxxxxx00 D
b0xxxxxxxxxxxxxxxxxxxx00 Y
1B
1g
#25000
0V
bx ,
bx m
bx +
bx Q
bx -
bx n
0W#
1`#
1X#
b1 G
1P"
bx l
bx D"
bx &$
1b#
b10000000000000100000000000000000 c#
b10000000000000100000000000000000 ~
b10000000000000100000000000000000 s"
1W
b10000000000000100000000000000000 \
b10000000000000100000000000000000 /"
b10000000000000100000000000000000 ""
b10000000000000100000000000000000 l#
b1000 i"
b1000 j"
b1 %
b1 [
bx S
bx ($
1t#
1O"
b10000 s#
b10000 T"
b10000 =#
b10000 u#
1k#
1?"
bx e#
bx E"
b1100 R#
b1100 {
b1100 ]#
b10000000000000100000000000000000 P#
b10000000000000100000000000000000 \#
0z
b10000000000000100000000000000000 x
b10000000000000100000000000000000 [#
b111100000100001000000000000010 o"
b111100000100001000000000000010 )"
b100 k"
b100 N"
b100 f"
b100 l"
b100 ^
b100 L"
10
1H
#30000
00
0H
b1111100111 1
b0xxxxxxxxxxxxxxxxxxxx01 D
b0xxxxxxxxxxxxxxxxxxxx01 Y
#35000
b1 y
b1 r"
b1 O#
b10001 U"
b10001 <#
b10001 r#
b11 J#
b11 |
b11 Q#
b1 v"
b10001000000000000000100 d"
1:#
0+#
1|"
b1101 7#
b10001 ^"
b10001 D#
b10001 #$
b0 9#
b1 u"
b1 w"
b1 y"
b10000000000000000 x"
b1 z"
b100010000000000000001 c"
b10 G
b110100000100010000000000000001 '"
b110100000100010000000000000001 {"
b1100 i"
b1100 j"
b10 %
b10 [
b1 ("
bx 7"
bx ($
bx S
b110100000100010000000000000001 K
b110100000100010000000000000001 $
b110100000100010000000000000001 Z
b110100000100010000000000000001 &"
b110100000100010000000000000001 n"
b1000 k"
b1000 N"
b1000 f"
b1000 l"
b1000 ^
b1000 L"
b100 m"
b1000 h"
b100 M"
b100 g"
b100 8#
b10000000000000100000000000000000 m#
b10000000000000100000000000000000 !"
b10000000000000100000000000000000 X"
b10000000000000100000000000000000 ?#
b10000000000000100000000000000000 x#
1q#
1A"
b10000 v#
b10000 V"
b10000 >#
b10000 z#
1w#
1R"
10
1H
#40000
00
0H
b1111100110 1
#45000
b0 y
b0 r"
b0 O#
b0 v"
b1000 U"
b1000 <#
b1000 r#
b1100 J#
b1100 |
b1100 Q#
b1000000000000000000000 d"
1V
0:#
1+#
0;#
0|"
b1111 7#
b1000 ^"
b1000 D#
b1000 #$
b0 u"
b0 w"
b0 y"
b0 x"
b0 z"
b10000000000000000000 c"
0X#
b11 G
b111100000010000000000000000000 '"
b111100000010000000000000000000 {"
0`#
0b#
b1 c#
b1 ~
b1 s"
0U
0W
b1 \
b1 /"
b1 ""
b1 l#
b10 ("
b10000 i"
b10000 j"
b11 %
b11 [
b111100000010000000000000000000 K
b111100000010000000000000000000 $
b111100000010000000000000000000 Z
b111100000010000000000000000000 &"
b111100000010000000000000000000 n"
bx S
bx ($
1|#
1S"
b10000 {#
b10000 W"
b10000 }#
b10000000000000100000000000000000 y#
b10000000000000100000000000000000 Y"
b10000000000000100000000000000000 ~#
b10001 s#
b10001 T"
b10001 =#
b10001 u#
b11 R#
b11 {
b11 ]#
b1 P#
b1 \#
b1 x
b1 [#
b110100000100010000000000000001 o"
b110100000100010000000000000001 )"
b1000 m"
b1100 h"
b1000 M"
b1000 g"
b1000 8#
b1100 k"
b1100 N"
b1100 f"
b1100 l"
b1100 ^
b1100 L"
10
1H
#50000
00
0H
b1111100101 1
#55000
12#
13#
1,#
b1010 J#
b1010 |
b1010 Q#
b0 U"
b0 <#
b0 r#
b0 F"
b0 6#
b0 d#
b0 E#
1(#
b0 _"
b0 F#
b0 $$
b0 d"
0I#
0:#
1;#
0+#
b0 7#
b0 ^"
b0 D#
b0 #$
b0 c"
b100 G
b0 '"
b0 {"
b10100 i"
b10100 j"
b100 %
b100 [
b11 ("
b0 c#
b0 ~
b0 s"
b0 \
b0 /"
b0 ""
b0 l#
bx ($
bx S
b0 K
b0 $
b0 Z
b0 &"
b0 n"
b10000 k"
b10000 N"
b10000 f"
b10000 l"
b10000 ^
b10000 L"
b1100 m"
b10000 h"
b1100 M"
b1100 g"
b1100 8#
b111100000010000000000000000000 o"
b111100000010000000000000000000 )"
b0 P#
b0 \#
1z
b0 x
b0 [#
b1100 R#
b1100 {
b1100 ]#
b1 m#
b1 !"
b1 X"
b1 ?#
b1 x#
b1000 s#
b1000 T"
b1000 =#
b1000 u#
b10001 v#
b10001 V"
b10001 >#
b10001 z#
10
1H
#60000
00
0H
b1111100100 1
#65000
02#
03#
1:#
b11001000010000 y
b11001000010000 r"
b11001000010000 O#
b0 w
b0 q"
b0 M#
b11001000010000 v"
bx ,"
bx e"
bx 5#
bx ["
bx B#
bx "$
bx F"
bx 6#
bx d#
bx E#
x(#
bx _"
bx F#
bx $$
b1000 U"
b1000 <#
b1000 r#
b0 H#
0,#
b11 J#
b11 |
b11 Q#
b100001000001100100001000000 d"
1I#
0;#
1|"
b1101 7#
1t"
b1000 Z"
b1000 @#
b1000 !$
b1000 ^"
b1000 D#
b1000 #$
b110 9#
b1000 G#
b10000 u"
b11001000010000 w"
b11001000010000 y"
b110010000100000000000000000000 x"
b11001000010000 z"
b1000010000011001000010000 c"
b0 ,
b0 m
b0 +
b0 Q
b0 -
b0 n
b101 G
b110101000010000011001000010000 '"
b110101000010000011001000010000 {"
b0 l
b0 D"
b0 &$
b100 ("
b11000 i"
b11000 j"
b101 %
b101 [
b110101000010000011001000010000 K
b110101000010000011001000010000 $
b110101000010000011001000010000 Z
b110101000010000011001000010000 &"
b110101000010000011001000010000 n"
bx S
bx ($
b10001 {#
b10001 W"
b10001 }#
b1 y#
b1 Y"
b1 ~#
b1000 v#
b1000 V"
b1000 >#
b1000 z#
b0 s#
b0 T"
b0 =#
b0 u#
b0 m#
b0 !"
b0 X"
b0 ?#
b0 x#
b0 e#
b0 E"
b1010 R#
b1010 {
b1010 ]#
b0 o"
b0 )"
b10000 m"
b10100 h"
b10000 M"
b10000 g"
b10000 8#
b10100 k"
b10100 N"
b10100 f"
b10100 l"
b10100 ^
b10100 L"
10
1H
#70000
00
0H
b1111100011 1
